Can the number of cat adoptions predict the volume of traffic?
…
# transforming data into another useable dataframe structure
trans_cats <- alberta_cats %>%
  gather("variable", "count", 2:4)
trans_cats

## # A tibble: 30 x 3
##    Fiscal.Year variable  count
##    <chr>       <chr>     <int>
##  1 2005        FY.Volume  8534
##  2 2006        FY.Volume  9811
##  3 2007        FY.Volume 10419
##  4 2008        FY.Volume 10586
##  5 2009        FY.Volume 10958
##  6 2010        FY.Volume 10644
##  7 2011        FY.Volume  9938
##  8 2012        FY.Volume  8785
##  9 2013        FY.Volume  7317
## 10 2014        FY.Volume  7773
## # ... with 20 more rows
…
